Place,Name,BirthDate,Sex,State,Division,Equipment,BodyweightKg,WeightClassKg,Squat1Kg,Squat2Kg,Squat3Kg,Best3SquatKg,Bench1Kg,Bench2Kg,Bench3Kg,Best3BenchKg,Deadlift1Kg,Deadlift2Kg,Deadlift3Kg,Best3DeadliftKg,TotalKg,Event
1,Kaylee Fehr,,F,AB,Youth 2,Raw,31.4,47,27.5,-32.5,32.5,32.5,17.5,19,21,21,47.5,55,-60,55,108.5,SBD
1,Grace Labrecque,,F,,Youth 2,Raw,40.3,47,-25,25,27.5,27.5,15,-17.5,19,19,35,37.5,-40,37.5,84,SBD
1,Zoe Dubrule,,F,,Youth 2,Raw,46.9,47,38,40,42.5,42.5,16,-20,22.5,22.5,47.5,50,55,55,120,SBD
1,Hannah Trudeau,,F,,Youth 2,Raw,48.7,52,35,37.5,40,40,18,20,-22.5,20,50,55,60,60,120,SBD
1,Zara Chenard,,F,AB,Youth 3,Raw,45.9,47,60,65,67.5,67.5,27.5,30,-31,30,70,75,80,80,177.5,SBD
1,Brielle Maisonneuve,,F,,Youth 3,Raw,47.4,52,70,75,80,80,35,37.5,-40,37.5,85,90,95,95,212.5,SBD
1,Dani Paterson,,F,,Youth 3,Raw,56.6,57,60,62.5,67.5,67.5,35,37.5,-42.5,37.5,80,,,80,185,SBD
1,Namroz Gill,,F,,Sub-Juniors,Raw,76.3,84,130,-137.5,-137.5,130,62.5,-65,-65,62.5,147.5,155,162.5,162.5,355,SBD
1,Maya Winckers,,F,AB,Juniors,Raw,59.7,63,140,150,-155,150,70,-75,-77.5,70,140,145,-150,145,365,SBD
2,Maria Ren,,F,AB,Juniors,Raw,58.1,63,97.5,-102.5,-102.5,97.5,55,-57.5,-60,55,130,135,-140,135,287.5,SBD
3,Jenna Loewen,,F,AB,Juniors,Raw,60.4,63,-75,75,-80,75,37.5,40,-47.5,40,80,85,90,90,205,SBD
1,Keeya Beausoleil,,F,AB,Juniors,Raw,60.9,63,,,,,50,55,57.5,57.5,,,,,57.5,B
1,Kaylee Tait,,F,,Juniors,Raw,73.8,76,105,110,,110,47.5,50,52.5,52.5,100,115,,115,277.5,SBD
1,Demiel Woodbine,,F,,Juniors,Raw,95,84+,95,105,-115,105,65,-75,-80,65,125,130,-140,130,300,SBD
1,Natalie Chappell,,F,AB,Open,Raw,62.8,63,77.5,85,92.5,92.5,42.5,-47.5,47.5,47.5,115,122.5,130,130,270,SBD
2,Janie Simard,,F,AB,Open,Raw,61.8,63,80,85,90,90,47.5,50,52.5,52.5,117.5,-120,125,125,267.5,SBD
1,Shelby Fieger,,F,,Open,Raw,68.2,69,115,120,127.5,127.5,65,72.5,80,80,122.5,132.5,145,145,352.5,SBD
2,Colby Robbins,,F,,Open,Raw,64.1,69,102.5,110,-115,110,57.5,-60,,57.5,115,122.5,125,125,292.5,SBD
1,Meghan Caron,,F,,Open,Raw,81.9,84,100,-102.5,-105,100,45,47.5,55,55,110,112.5,120,120,275,SBD
1,Jynette Dussault,,F,,Open,Raw,130.8,84+,135,-142.5,-142.5,135,67.5,70,77.5,77.5,125,142.5,-150,142.5,355,SBD
2,Nicole Pepper,,F,,Open,Raw,100.8,84+,102.5,105,112.5,112.5,70,80,85,85,110,125,140,140,337.5,SBD
1,Dawn Noppers,,F,,Masters 1,Raw,76,76,77.5,85,92.5,92.5,52.5,55,57.5,57.5,107.5,117.5,127.5,127.5,277.5,SBD
1,Kyle Johnson #12,,M,,Sub-Juniors,Raw,79.2,83,-165,165,180,180,95,100,107.5,107.5,175,190,200,200,487.5,SBD
1,Carlos Dimapasoc,,M,,Juniors,Raw,63.6,66,125,135,155,155,95,102.5,105,105,125,185,-190,185,445,SBD
1,Nayte Ramey,,M,,Juniors,Raw,71.2,74,132.5,142.5,-147.5,142.5,75,80,82.5,82.5,180,192.5,205,205,430,SBD
1,Brandon Lee #6,,M,,Juniors,Raw,81.6,83,175,185,187.5,187.5,97.5,102.5,105,105,210,220,225,225,517.5,SBD
2,Colin Norrish,,M,AB,Juniors,Raw,80.9,83,175,185,190,190,95,100,-102.5,100,210,215,-220,215,505,SBD
3,Jacob Wing,,M,,Juniors,Raw,80.2,83,170,182.5,-192.5,182.5,107.5,112.5,-120,112.5,170,190,205,205,500,SBD
1,Matthew O'donnell,,M,AB,Juniors,Raw,88.2,93,160,167.5,175,175,105,112.5,120,120,185,195,205,205,500,SBD
1,De'Lano-J Woodbine,,M,AB,Juniors,Raw,104.1,105,265,-285,-285,265,195,-205,-210,195,310,330,-345,330,790,SBD
1,Jacob Manavalan,,M,,Open,Raw,58.7,59,102.5,105,110,110,-97.5,97.5,-102.5,97.5,145,150,155,155,362.5,SBD
1,Jad Mouallem,,M,,Open,Raw,92.6,93,167.5,177.5,185,185,127.5,135,145,145,210,222.5,240,240,570,SBD
2,Nathaniel Miller,,M,AB,Open,Raw,91.6,93,180,195,202.5,202.5,125,-140,-140,125,225,230,237.5,237.5,565,SBD
3,Vaughn Gregory,,M,,Open,Raw,92.6,93,182.5,192.5,-200,192.5,137.5,142.5,-147.5,142.5,205,220,-227.5,220,555,SBD
1,Jacob Manavalan,,M,,Open,Raw,58.7,59,102.5,105,110,110,-97.5,97.5,-102.5,97.5,145,150,155,155,362.5,SBD
1,Jason Hill,,M,AB,Masters 2,Raw,91.1,93,135,147.5,155,155,125,135,-140.5,135,162.5,177.5,190,190,480,SBD
1,Dan Posa,,M,AB,Masters 2,Raw,101.4,105,-115,127.5,137.5,137.5,60,67.5,-77.5,67.5,-140,150,155,155,360,SBD
1,Garvin Cole,,M,,Masters 4,Raw,90.2,93,125,132.5,137.5,137.5,75,80,-82.5,80,130,140,145,145,362.5,SBD
